dump.vcd
$date
    May  5, 2024  12:15:03
$end
$version
    TOOL:	xmsim	23.09-s001
$end
$timescale
    1 ns
$end

$scope module tb_alu $end
$var reg       1 !    clk $end

$scope module alu_interface_ins $end
$var wire      1 "    clk  $end
$var reg       1 #    reset $end
$var reg       4 $    A [3:0] $end
$var reg       4 %    B [3:0] $end
$var reg       2 &    Op [1:0] $end
$var reg       8 '    Result [7:0] $end
$upscope $end


$scope module ALU_b1_ins $end
$var wire      1 (    reset  $end
$var wire      1 "    clk  $end
$var wire      4 )    A [3:0] $end
$var wire      4 *    B [3:0] $end
$var wire      2 +    Op [1:0] $end
$var reg       8 ,    Result [7:0] $end
$upscope $end

$upscope $end

$enddefinitions $end
$dumpvars
0!
0"
x#
bx $
bx %
bx &
bx '
x(
bx )
bx *
bx +
bx ,
$end
#5
1!
1"
1#
b1000 $
b1001 %
b0 &
b0 +
b1001 *
b1000 )
1(
#10
0!
0"
#15
1!
1"
b0 ,
b0 '
0#
b1100 $
b1010 %
b11 &
b11 +
b1010 *
b1100 )
0(
#20
0!
0"
#25
1!
1"
b1 ,
b1 '
1#
b1 $
b1001 %
b1 &
b1 +
b1001 *
b1 )
1(
#30
0!
0"
#35
1!
1"
b0 ,
b0 '
0#
b1110 $
b110 %
b110 *
b1110 )
0(
#40
0!
0"
#45
1!
1"
b1000 ,
b1000 '
1#
b1001 $
b1111 %
b0 &
b0 +
b1111 *
b1001 )
1(
#50
0!
0"
#55
1!
1"
b0 ,
b0 '
0#
b1110 $
b110 %
b110 *
b1110 )
0(
#60
0!
0"
#65
1!
1"
b10100 ,
b10100 '
1#
b1100 $
b1011 %
b1011 *
b1100 )
1(
#70
0!
0"
#75
1!
1"
b0 ,
b0 '
0#
b11 $
b1010 %
b1 &
b1 +
b1010 *
b11 )
0(
#80
0!
0"
#85
1!
1"
b11111001 ,
b11111001 '
1#
b110 $
b1111 %
b0 &
b0 +
b1111 *
b110 )
1(
#90
0!
0"
#95
1!
1"
b0 ,
b0 '
0#
b101 $
b0 %
b1 &
b1 +
b0 *
b101 )
0(
#100
0!
0"
#105
1!
1"
b101 ,
b101 '
b10 $
b1110 %
b1110 *
b10 )
#110
0!
0"
#115
1!
1"
b11110100 ,
b11110100 '
b0 $
b10 %
b10 &
b10 +
b10 *
b0 )
#120
0!
0"
#125
1!
1"
b0 ,
b0 '
1#
b1 $
b1101 %
b1101 *
b1 )
1(
#130
0!
0"
#135
1!
1"
b1001 $
b111 %
b1 &
b1 +
b111 *
b1001 )
#140
0!
0"
#145
1!
1"
b101 $
b10 &
b10 +
b101 )
#150
0!
0"
#155
1!
1"
b11 $
b1101 %
b1 &
b1 +
b1101 *
b11 )
#160
0!
0"
#165
1!
1"
b110 $
b1 %
b11 &
b11 +
b1 *
b110 )
#170
0!
0"
#175
1!
1"
0#
b0 $
b10 %
b1 &
b1 +
b10 *
b0 )
0(
#180
0!
0"
#185
1!
1"
b11111110 ,
b11111110 '
1#
b1101 $
b1011 %
b11 &
b11 +
b1011 *
b1101 )
1(
#190
0!
0"
#195
1!
1"
b0 ,
b0 '
0#
b11 $
b0 %
b0 &
b0 +
b0 *
b11 )
0(
#200
0!
0"
#205
1!
1"
b11 ,
b11 '
1#
b1110 $
b1111 %
b10 &
b10 +
b1111 *
b1110 )
1(
#210
0!
0"
#215
1!
1"
b0 ,
b0 '
0#
b1010 $
b1100 %
b1 &
b1 +
b1100 *
b1010 )
0(
#220
0!
0"
#225
1!
1"
b11111110 ,
b11111110 '
b1 $
b100 %
b100 *
b1 )
#230
0!
0"
#235
1!
1"
b11111101 ,
b11111101 '
b10 $
b1000 %
b11 &
b11 +
b1000 *
b10 )
#240
0!
0"
#245
1!
1"
b0 ,
b0 '
1#
b111 $
b1011 %
b1011 *
b111 )
1(
#250
0!
0"
#255
1!
1"
b1011 $
b1001 %
b1001 *
b1011 )
#260
0!
0"
#265
1!
1"
0#
b10 $
b110 %
b1 &
b1 +
b110 *
b10 )
0(
#270
0!
0"
#275
1!
1"
b11111100 ,
b11111100 '
1#
b101 $
b111 %
b11 &
b11 +
b111 *
b101 )
1(
#280
0!
0"
#285
1!
1"
b0 ,
b0 '
0#
b1100 $
b1000 %
b1 &
b1 +
b1000 *
b1100 )
0(
#290
0!
0"
#295
1!
1"
b100 ,
b100 '
b1001 $
b1010 %
b0 &
b0 +
b1010 *
b1001 )
#300
0!
0"
#305
1!
1"
b10011 ,
b10011 '
b111 $
b100 %
b100 *
b111 )
#310
0!
0"
#315
1!
1"
b1011 ,
b1011 '
b0 %
b1 &
b1 +
b0 *
#320
0!
0"
#325
1!
1"
b111 ,
b111 '
1#
b1101 %
b0 &
b0 +
b1101 *
1(
#330
0!
0"
#335
1!
1"
b0 ,
b0 '
0#
b1110 $
b0 %
b10 &
b10 +
b0 *
b1110 )
0(
#340
0!
0"
#345
1!
1"
1#
b1111 $
b111 %
b0 &
b0 +
b111 *
b1111 )
1(
#350
0!
0"
#355
1!
1"
b11 %
b10 &
b10 +
b11 *
#360
0!
0"
#365
1!
1"
0#
b110 $
b1000 %
b0 &
b0 +
b1000 *
b110 )
0(
#370
0!
0"
#375
1!
1"
b1110 ,
b1110 '
b1101 $
b10 %
b10 &
b10 +
b10 *
b1101 )
#380
0!
0"
#385
1!
1"
b11010 ,
b11010 '
1#
b100 $
b1111 %
b1111 *
b100 )
1(
#390
0!
0"
#395
1!
1"
b0 ,
b0 '
0#
b1110 $
b10 %
b1 &
b1 +
b10 *
b1110 )
0(
#400
0!
0"
#405
1!
1"
b1100 ,
b1100 '
1#
b0 $
b1111 %
b0 &
b0 +
b1111 *
b0 )
1(
#410
0!
0"
#415
1!
1"
b0 ,
b0 '
0#
b101 $
b1000 %
b10 &
b10 +
b1000 *
b101 )
0(
#420
0!
0"
#425
1!
1"
b101000 ,
b101000 '
b11 $
b1110 %
b0 &
b0 +
b1110 *
b11 )
#430
0!
0"
#435
1!
1"
b10001 ,
b10001 '
1#
b1 %
b1 &
b1 +
b1 *
1(
#440
0!
0"
#445
1!
1"
b0 ,
b0 '
b1000 $
b1101 %
b11 &
b11 +
b1101 *
b1000 )
#450
0!
0"
#455
1!
1"
b1111 $
b1001 %
b0 &
b0 +
b1001 *
b1111 )
#460
0!
0"
#465
1!
1"
b1011 $
b111 %
b111 *
b1011 )
#470
0!
0"
#475
1!
1"
b1101 $
b1 %
b11 &
b11 +
b1 *
b1101 )
#480
0!
0"
#485
1!
1"
b111 %
b10 &
b10 +
b111 *
#490
0!
0"
#495
1!
1"
0#
b1111 $
b1100 %
b0 &
b0 +
b1100 *
b1111 )
0(
#500
0!
0"
#505
1!
1"
b11011 ,
b11011 '
b0 $
b1000 %
b1 &
b1 +
b1000 *
b0 )
#510
0!
0"
#515
1!
1"
b11111000 ,
b11111000 '
b1011 $
b100 %
b100 *
b1011 )
#520
0!
0"
#525
1!
1"
b111 ,
b111 '
b1 $
b11 &
b11 +
b1 )
#530
0!
0"
#535
1!
1"
b0 ,
b0 '
1#
b1100 $
b1111 %
b0 &
b0 +
b1111 *
b1100 )
1(
#540
0!
0"
#545
1!
1"
0#
b1011 $
b10 %
b10 *
b1011 )
0(
#550
0!
0"
#555
1!
1"
b1101 ,
b1101 '
1#
b110 $
b111 %
b111 *
b110 )
1(
#560
0!
0"
#565
1!
1"
b0 ,
b0 '
0#
b101 $
b1100 %
b11 &
b11 +
b1100 *
b101 )
0(
#570
0!
0"
#575
1!
1"
b110 $
b100 %
b0 &
b0 +
b100 *
b110 )
#580
0!
0"
#585
1!
1"
b1010 ,
b1010 '
1#
b10 $
b1001 %
b1001 *
b10 )
1(
#590
0!
0"
#595
1!
1"
b0 ,
b0 '
b111 %
b111 *
#600
0!
0"
#605
1!
1"
b1100 $
b11 %
b10 &
b10 +
b11 *
b1100 )
#610
0!
0"
#615
1!
1"
0#
b11 $
b1000 %
b0 &
b0 +
b1000 *
b11 )
0(
#620
0!
0"
#625
1!
1"
b1011 ,
b1011 '
1#
b110 $
b1011 %
b1 &
b1 +
b1011 *
b110 )
1(
#630
0!
0"
#635
1!
1"
b0 ,
b0 '
b1 $
b101 %
b101 *
b1 )
#640
0!
0"
#645
1!
1"
0#
b1001 $
b100 %
b100 *
b1001 )
0(
#650
0!
0"
#655
1!
1"
b101 ,
b101 '
1#
b0 $
b1001 %
b1001 *
b0 )
1(
#660
0!
0"
#665
1!
1"
b0 ,
b0 '
b1110 $
b11 %
b11 &
b11 +
b11 *
b1110 )
#670
0!
0"
#675
1!
1"
b1101 $
b10 %
b1 &
b1 +
b10 *
b1101 )
#680
0!
0"
#685
1!
1"
b1001 $
b101 %
b0 &
b0 +
b101 *
b1001 )
#690
0!
0"
#695
1!
1"
0#
b1110 $
b100 %
b11 &
b11 +
b100 *
b1110 )
0(
#700
0!
0"
#705
1!
1"
b11 ,
b11 '
1#
b111 $
b1001 %
b0 &
b0 +
b1001 *
b111 )
1(
#710
0!
0"
#715
1!
1"
b0 ,
b0 '
0#
b1000 %
b1 &
b1 +
b1000 *
0(
#720
0!
0"
#725
1!
1"
b11111111 ,
b11111111 '
1#
b1011 $
b1 %
b11 &
b11 +
b1 *
b1011 )
1(
#730
0!
0"
#735
1!
1"
b0 ,
b0 '
b10 $
b1001 %
b0 &
b0 +
b1001 *
b10 )
#740
0!
0"
#745
1!
1"
0#
b111 $
b1010 %
b11 &
b11 +
b1010 *
b111 )
0(
#750
0!
0"
#755
1!
1"
b101 $
b0 &
b0 +
b101 )
#760
0!
0"
#765
1!
1"
b1111 ,
b1111 '
b1000 $
b1000 %
b1 &
b1 +
b1000 *
b1000 )
#770
0!
0"
#775
1!
1"
b0 ,
b0 '
b1010 $
b110 %
b0 &
b0 +
b110 *
b1010 )
#780
0!
0"
#785
1!
1"
b10000 ,
b10000 '
1#
b1100 $
b1101 %
b1 &
b1 +
b1101 *
b1100 )
1(
#790
0!
0"
#795
1!
1"
b0 ,
b0 '
0#
b10 %
b11 &
b11 +
b10 *
0(
#800
0!
0"
#805
1!
1"
b110 ,
b110 '
1#
b1011 $
b1 %
b1 *
b1011 )
1(
#810
0!
0"
#815
1!
1"
b0 ,
b0 '
0#
b111 $
b10 %
b0 &
b0 +
b10 *
b111 )
0(
#820
0!
0"
#825
1!
1"
b1001 ,
b1001 '
b1000 $
b1010 %
b11 &
b11 +
b1010 *
b1000 )
#830
0!
0"
#835
1!
1"
b0 ,
b0 '
1#
b1111 %
b1 &
b1 +
b1111 *
1(
#840
0!
0"
#845
1!
1"
b1110 $
b1 %
b11 &
b11 +
b1 *
b1110 )
#850
0!
0"
#855
1!
1"
0#
b1011 $
b10 %
b0 &
b0 +
b10 *
b1011 )
0(
#860
0!
0"
#865
1!
1"
b1101 ,
b1101 '
b1101 $
b0 %
b10 &
b10 +
b0 *
b1101 )
#870
0!
0"
#875
1!
1"
b0 ,
b0 '
b111 $
b1100 %
b1100 *
b111 )
#880
0!
0"
#885
1!
1"
b1010100 ,
b1010100 '
b1110 $
b10 %
b10 *
b1110 )
#890
0!
0"
#895
1!
1"
b11100 ,
b11100 '
b1010 $
b100 %
b100 *
b1010 )
#900
0!
0"
#905
1!
1"
b101000 ,
b101000 '
1#
b0 $
b11 %
b11 *
b0 )
1(
#910
0!
0"
#915
1!
1"
b0 ,
b0 '
b1110 $
b1001 %
b0 &
b0 +
b1001 *
b1110 )
#920
0!
0"
#925
1!
1"
0#
b10 $
b0 %
b10 &
b10 +
b0 *
b10 )
0(
#930
0!
0"
#935
1!
1"
1#
b110 $
b1101 %
b11 &
b11 +
b1101 *
b110 )
1(
#940
0!
0"
#945
1!
1"
b0 $
b1011 %
b10 &
b10 +
b1011 *
b0 )
#950
0!
0"
#955
1!
1"
0#
b110 $
b1110 %
b1 &
b1 +
b1110 *
b110 )
0(
#960
0!
0"
#965
1!
1"
b11111000 ,
b11111000 '
b1101 $
b1000 %
b0 &
b0 +
b1000 *
b1101 )
#970
0!
0"
#975
1!
1"
b10101 ,
b10101 '
1#
b1000 $
b111 %
b10 &
b10 +
b111 *
b1000 )
1(
#980
0!
0"
#985
1!
1"
b0 ,
b0 '
b101 %
b1 &
b1 +
b101 *
#990
0!
0"
#995
1!
1"
0#
b10 $
b1010 %
b1010 *
b10 )
0(
